module gitlab.com/postgres-ai/database-lab

go 1.13

require (
	github.com/AlekSi/pointer v1.1.0
	github.com/Microsoft/go-winio v0.4.14 // indirect
	github.com/docker/distribution v2.7.1+incompatible // indirect
	github.com/docker/docker v1.13.1
	github.com/docker/go-connections v0.4.0 // indirect
	github.com/docker/go-units v0.4.0 // indirect
	github.com/gorilla/mux v1.7.3
	github.com/jessevdk/go-flags v1.4.1-0.20181221193153-c0795c8afcf4
	github.com/lib/pq v1.3.0
	github.com/opencontainers/go-digest v1.0.0-rc1 // indirect
	github.com/pkg/errors v0.8.1
	github.com/rs/xid v1.2.1
	github.com/sergi/go-diff v1.1.0
	github.com/sirupsen/logrus v1.4.2
	github.com/stretchr/testify v1.4.0
	github.com/urfave/cli/v2 v2.1.1
	golang.org/x/net v0.0.0-20200114155413-6afb5195e5aa // indirect
	gopkg.in/yaml.v2 v2.2.7
)
